{ "capacity": 6,
  "num_vehicles": 100,
  "locations": 
   [ "12.984842,80.217085",
     "13.0551734,80.2315509",
     "13.0902716,80.2572318",
     "13.0422943,80.2427422",
     "12.9943711,80.2585601",
     "13.0411537,80.2318341",
     "13.0473984,80.2370817",
     "13.0311276,80.250106",
     "13.0997339,80.2384201",
     "12.9793056,80.2214151",
     "13.0333792,80.2666106",
     "12.9960673,80.2526128",
     "13.0769494,80.1890986",
     "13.0723927,80.2466622",
     "13.0400717,80.2298033",
     "13.0931472,80.2059053",
     "13.0590778,80.2040565",
     "13.0317477,80.2061593",
     "13.0926323,80.2414349",
     "13.0805677,80.2361906",
     "13.045296,80.223998",
     "13.0001671,80.2508188",
     "13.0416788,80.2664524",
     "13.0912124,80.2149405",
     "13.034256,80.2405399",
     "13.0341988,80.1343491",
     "12.9964306,80.2046564",
     "13.0070159,80.2516647",
     "13.0405026,80.2336924",
     "13.0211193,80.2466251",
     "13.0414137,80.1846001",
     "13.0331489,80.2560485",
     "12.9904577,80.2603541",
     "12.9767682,80.2237119",
     "12.9974258,80.2589629",
     "12.9832097,80.2214243",
     "12.9435151,80.1509649",
     "13.040901,80.2161477",
     "13.0453051,80.198045",
     "12.9760613,80.2585789",
     "12.9868622,80.1867333",
     "13.0535515,80.2427392",
     "13.0762804,80.2259283",
     "13.0461216,80.1822898",
     "13.0826802,80.2707184",
     "13.0488001,80.1969526",
     "13.083742,80.216245",
     "13.0826569,80.1919061",
     "13.0990641,80.1919466",
     "13.0563078,80.2033973",
     "12.9754447,80.2565317",
     "13.0374682,80.2044699",
     "13.0404548,80.2534679",
     "13.051085,80.2271817",
     "13.0338941,80.2348614",
     "12.9950039,80.2661502",
     "13.0423802,80.2427405",
     "13.0385235,80.2680637",
     "13.0369742,80.220297",
     "12.9958471,80.2578372",
     "13.0394205517736,80.2192443609238",
     "13.0769128,80.1891377",
     "13.0210081,80.2686746",
     "13.0282005207468,80.2508223429322",
     "13.0253326,80.26066",
     "13.0602579,80.1943584",
     "13.0311483,80.2170503",
     "13.0296908,80.2161153",
     "13.0311123,80.2135773",
     "13.0545425,80.2166411",
     "13.019735,80.1699907",
     "13.0542281,80.2197419",
     "13.0388157,80.2120714",
     "13.0826802,80.2707184",
     "13.0606928,80.2384179",
     "13.0032349,80.2540445",
     "13.0548303,80.2359998",
     "13.0869406,80.1851952",
     "12.9666293,80.1251147",
     "13.0544677,80.2442649",
     "13.0518016,80.2550571",
     "13.0405026,80.2336924",
     "12.9998011,80.2553871",
     "13.0131004,80.2457226",
     "13.0583002,80.2458132",
     "13.0217692,80.2195439",
     "13.0200287,80.2587844",
     "13.0439875,80.2356114",
     "13.04512,80.1982128",
     "13.0527147,80.2263973" ],
  "names": 
   [ "Rohini",
     "Dr.v. Jayashree",
     "SIVARAMAKRISHNAN",
     "S. RAMASWAMY",
     "GANAPATHY SUBRAMANIAN",
     "LATHA",
     "priya venkat",
     "MURUGAN RAJAN",
     "KARTHIKEYAN",
     "MLP.THIAGARAJAN",
     "Mrs .SAROJA",
     "LAKSHMI RAMACHANDRAN",
     "RAMYA PREM CHANDU",
     "MR. GANAPATHY",
     "N.Easwaran",
     "Dr.masthan",
     "BALASUBRAMANIAN",
     "R.Srinivasan",
     "Umarajan",
     "RAJESWARI",
     "Bala subramaniyam",
     "V.RAMACHANDRAN",
     "PRADEEP",
     "L.RANJANI",
     "M.VAIDYANATHAN",
     "R.PRABAKARAN",
     "J.NAGARAJ",
     "S.GURUMURTHY",
     "K.R.SANKARAN",
     "D.SATHYAMOORTHY",
     "SRIVIDYA ANANTHARAMAN ",
     "stotra",
     "UMA CHANDRAMOULI",
     "A.NARAYANA SAMY",
     "Rama subramaniyam",
     "L. Vaidehi",
     "krishnan",
     "V.RAMAN",
     "MEENAKSHI",
     "REVATHI SETHURAMAN",
     "SARADHA SUBRAMANIYAM ",
     "SWAMINATHAN",
     "JULIE",
     "CHANDRA VADHANA",
     "Amudha",
     "N.BALAJI",
     "P.S.RAJESWARAN",
     "SAKTHI",
     "R.K.KUTTY",
     "UDAYA KUMAR",
     "SHANTHA",
     "CHANDRA SRINIVASAN",
     "T.RAMANAN",
     "HUSSAIN",
     "KALYANAMALAI MOHAN",
     "DR.ELIZABETH",
     "SRIDHAR SOURIRAJAN",
     "V.SUBRAMANIYAM",
     "TAMIL SELVI",
     "CHAMBAKALAKSHMI",
     "M K Srinivasan",
     "ASHA NATHAN",
     "MEENAKSHI",
     "USHA GOPAL",
     "Venugopal",
     "R.RADHAKRISHNAN",
     "GAYATHRI",
     "M.RAMA MURTHY",
     "RAVICHANDRAN",
     "BAKYALAKSHMI KRISHNAN",
     "RADHAKRISHNAN",
     "D.VENKATESH",
     "REVATHI KALYANARAMAN",
     "SUBRAMANIAN",
     "V.RAJAMANI",
     "SHANKARAN",
     "RAHUL",
     "T.S NATARAJAN",
     "VISHNU .R.VENKATARAMAN",
     "DR. BHANUMATHI RAMAKRISHNA",
     "LAKSHMI VISWANATHAN",
     "VENKATACHALAM",
     "C.LAKSHMANAN",
     "R.LAKSHMI",
     "ARCHANA",
     "SUNDARAM",
     "LAKSHMI CHANDRA SEKAR",
     "S.SRIDHAR",
     "P.S.SANTHANAM",
     "K.VENKATARAMAN" ],
  "depot": 0,
  "demands": 
   [ 0,
     1,
     1,
     1,
     1,
     1,
     1,
     1,
     1,
     1,
     1,
     1,
     1,
     1,
     1,
     1,
     1,
     1,
     1,
     2,
     1,
     1,
     1,
     1,
     1,
     1,
     1,
     1,
     1,
     1,
     1,
     1,
     1,
     1,
     1,
     1,
     1,
     1,
     1,
     1,
     1,
     1,
     1,
     1,
     1,
     1,
     1,
     1,
     1,
     1,
     1,
     1,
     1,
     1,
     1,
     1,
     1,
     1,
     1,
     1,
     1,
     1,
     1,
     1,
     1,
     1,
     1,
     1,
     1,
     1,
     1,
     1,
     1,
     1,
     1,
     1,
     1,
     1,
     1,
     1,
     1,
     1,
     1,
     1,
     1,
     1,
     1,
     1,
     1,
     1 ],
  "speed": 20,
  "buffer_time_at_each_location": 10,
  "waiting_time": 0,
  "deliver_by_time": 285,
  "max_distance": 91 } 
